<?xml version="1.0" standalone="no"?>
<!DOCTYPE svg PUBLIC "-//W3C//DTD SVG 20010904//EN"
 "http://www.w3.org/TR/2001/REC-SVG-20010904/DTD/svg10.dtd">
<svg version="1.0" xmlns="http://www.w3.org/2000/svg"
 width="166.000000pt" height="104.000000pt" viewBox="0 0 166.000000 104.000000"
 preserveAspectRatio="xMidYMid meet">
<metadata>
Created by potrace 1.16, written by Peter Selinger 2001-2019
</metadata>
<g transform="translate(0.000000,104.000000) scale(0.100000,-0.100000)"
fill="#000000" stroke="none">
<path d="M890 992 c-19 -9 -37 -19 -40 -22 -3 -3 -23 -14 -45 -26 -35 -18 -40
-24 -37 -50 2 -16 8 -31 13 -35 6 -3 9 -10 7 -15 -2 -5 7 -19 20 -32 12 -12
20 -27 17 -32 -3 -4 0 -10 7 -12 6 -2 12 -11 14 -19 2 -15 50 -99 63 -109 3
-3 15 -23 25 -45 11 -22 30 -54 43 -72 13 -17 23 -34 23 -37 0 -3 36 -65 80
-137 44 -73 80 -136 80 -140 0 -5 5 -9 10 -9 6 0 10 -9 10 -20 0 -10 6 -23 13
-27 13 -8 31 -42 29 -53 -2 -17 50 -5 93 20 28 16 67 37 87 46 46 20 45 29
-22 136 -28 46 -57 92 -63 103 -7 11 -15 22 -18 25 -9 6 -46 69 -58 96 -5 11
-27 50 -48 85 -22 35 -49 85 -61 112 -12 26 -26 47 -31 47 -4 0 -16 18 -26 41
-10 22 -28 47 -39 55 -12 8 -19 17 -17 20 8 11 -64 124 -79 123 -8 0 -31 -8
-50 -17z"/>
<path d="M318 942 c-60 -30 -88 -50 -88 -62 0 -20 58 -133 71 -138 5 -2 9 -10
9 -18 0 -8 5 -14 10 -14 6 0 10 -6 10 -14 0 -7 9 -25 21 -40 11 -14 17 -26 13
-26 -4 0 2 -9 14 -20 12 -12 36 -49 52 -83 17 -34 39 -75 50 -92 11 -16 24
-39 30 -50 5 -11 39 -65 75 -120 36 -55 75 -120 87 -145 12 -25 28 -55 36 -67
l13 -22 47 26 c26 14 59 34 73 44 14 10 32 19 40 21 24 5 38 31 28 50 -5 10
-7 18 -4 18 3 0 -4 9 -15 20 -11 11 -20 25 -20 31 0 6 -7 17 -15 26 -8 8 -13
19 -10 24 4 5 2 9 -4 9 -11 0 -47 60 -43 73 1 4 -2 7 -7 7 -5 0 -18 20 -30 45
-12 25 -25 45 -30 45 -5 0 -11 8 -15 18 -3 9 -15 31 -26 47 -11 17 -29 48 -41
70 -12 22 -49 83 -83 135 -34 52 -68 107 -76 123 -7 15 -17 27 -22 27 -5 0 -7
4 -4 9 3 5 -1 14 -9 21 -8 7 -15 18 -15 25 0 6 -8 18 -17 26 -16 14 -27 10
-105 -29z"/>
</g>
</svg>
